documentation du parser du bon coin
===================================

Le bon coin contient plusisuers moteurs de recherche spécialisés (location immobilieres, ventes immobilières, petites annonces, recherche d'emploi etc....)

Ces différentes moteurs de recherche peuvent ê tre interrogés ia un système d(URL que nous dénomineront  à partir de mainteant par le mot __site__

Conception
----------

  - classe LBCSiteQuery
  cette classe a pour objectif de gérer les options de recherche des différetsn __sites__ du bon coin
 
  - classe LBCSite
    cette classe représetnte un __site__ du bon coin, il est composé entre autre des options associés à ce site

  - enumeration LBCSiteType
    permet d'énumérer les diffrents types de sites du bon coin
 
  - classe LBCSiteFactory
    classe fatory qui permet de disposer du site dont on a besoin à partir de l'énumération


   - classe LBCSiteLinkSearchFactory :  cette classe permet de générer autant de liens de recherche nécessaire selon le type du site sur lequel on travaille et les options de recherche passés en arguments au programme. Une instance de cette classe nécessite donc la liste des arguments du programme ainsi que le type de site demandé